Beer Project
…
sum(is.na(bb$brewery_name))

## [1] 0

sum(is.na(bb$City))

## [1] 0

sum(is.na(bb$State))

## [1] 0

bb %>% group_by(State) %>% summarise_at(vars(ABV), list(name = mean))

## # A tibble: 51 × 2
##    State    name
##    <chr>   <dbl>
##  1 " AK"  0.0556
##  2 " AL"  0.062 
##  3 " AR"  0.052 
##  4 " AZ" NA     
##  5 " CA" NA     
##  6 " CO" NA     
##  7 " CT"  0.0611
##  8 " DC"  0.0656
##  9 " DE" NA     
## 10 " FL" NA     
## # ℹ 41 more rows

bb %>% group_by(State) %>% summarise_at(vars(IBU), list(name = mean))

## # A tibble: 51 × 2
##    State  name
##    <chr> <dbl>
##  1 " AK"    NA
##  2 " AL"    NA
##  3 " AR"    NA
##  4 " AZ"    NA
##  5 " CA"    NA
##  6 " CO"    NA
##  7 " CT"    NA
##  8 " DC"    NA
##  9 " DE"    NA
## 10 " FL"    NA
## # ℹ 41 more rows

#Here the NAs from the data set were removed, and it was determine that they were random. 
bb2<- na.omit(bb)

#Here the two groups of IBU and ABV were summarized and then plotted by the median. 
bb2 %>% group_by(State) %>% summarise_at(vars(ABV), list(name = median))

## # A tibble: 50 × 2
##    State   name
##    <chr>  <dbl>
##  1 " AK" 0.057 
##  2 " AL" 0.06  
##  3 " AR" 0.04  
##  4 " AZ" 0.0575
##  5 " CA" 0.058 
##  6 " CO" 0.065 
##  7 " CT" 0.061 
##  8 " DC" 0.059 
##  9 " DE" 0.055 
## 10 " FL" 0.062 
## # ℹ 40 more rows

bb2 %>% group_by(State) %>% summarise_at(vars(IBU), list(name = median))

## # A tibble: 50 × 2
##    State  name
##    <chr> <dbl>
##  1 " AK"  46  
##  2 " AL"  43  
##  3 " AR"  39  
##  4 " AZ"  20.5
##  5 " CA"  42  
##  6 " CO"  40  
##  7 " CT"  29  
##  8 " DC"  47.5
##  9 " DE"  52  
## 10 " FL"  55  
## # ℹ 40 more rows
…
library(dplyr)

# Calculate the average ABV by state
median_abv_by_state <- bb2 %>%
  group_by(State) %>%
  summarize(median_ABV = median(ABV, na.rm = TRUE)) %>%
  arrange(desc(median_ABV))

median_abv_by_state

## # A tibble: 50 × 2
##    State median_ABV
##    <chr>      <dbl>
##  1 " ME"      0.067
##  2 " CO"      0.065
##  3 " OK"      0.063
##  4 " FL"      0.062
##  5 " GA"      0.062
##  6 " WV"      0.062
##  7 " CT"      0.061
##  8 " NC"      0.061
##  9 " NM"      0.061
## 10 " AL"      0.06 
## # ℹ 40 more rows
…
##      Brewery_id     beer_name Beer_ID  ABV IBU                          Style
## 1305        231 Dead-Eye DIPA    2067 0.09 130 American Double / Imperial IPA
##      Ounces             brewery_name       City State
## 1305     16 Cape Ann Brewing Company Gloucester    MA

# Calculate the average ibu by state
median_ibu_by_state <- bb2 %>%
  group_by(State) %>%
  summarize(median_IBU = median(IBU, na.rm = TRUE)) %>%
  arrange(desc(median_IBU))

median_ibu_by_state

## # A tibble: 50 × 2
##    State median_IBU
##    <chr>      <dbl>
##  1 " ME"       61  
##  2 " WV"       57.5
##  3 " FL"       55  
##  4 " GA"       55  
##  5 " DE"       52  
##  6 " NM"       51  
##  7 " NH"       48.5
##  8 " DC"       47.5
##  9 " NY"       47  
## 10 " AK"       46  
## # ℹ 40 more rows
…
